{"name":"Operador lista clientes","id":"apis;operador-lista-clientes","testSteps":[{"number":1,"description":"Given inicializo request","duration":749,"startTime":"2022-07-23T17:36:57.407562100-05:00[America/Bogota]","result":"SUCCESS","precondition":false,"level":0,"children":[{"number":2,"description":"inicializo request","duration":399,"startTime":"2022-07-23T17:36:57.749628600-05:00[America/Bogota]","result":"SUCCESS","precondition":false,"level":1}]},{"number":3,"description":"When ejecuta la peticion \"api/users?page\u003d2\"","duration":2476,"startTime":"2022-07-23T17:36:58.157805700-05:00[America/Bogota]","result":"SUCCESS","precondition":false,"level":0,"children":[{"number":4,"description":"GET https://reqres.in/api/users?page\u003d2\r","duration":0,"startTime":"2022-07-23T17:37:00.630860-05:00[America/Bogota]","result":"SUCCESS","restQuery":{"method":"GET","path":"https://reqres.in/api/users?page\u003d2\r","content":"\r","contentType":"null","requestHeaders":"Accept\u003d*/*\r","requestCookies":"\r","responseHeaders":"Date: Sat, 23 Jul 2022 22:36:55 GMT\r\nContent-Type: application/json; charset\u003dutf-8\r\nTransfer-Encoding: chunked\r\nConnection: keep-alive\r\nX-Powered-By: Express\r\nAccess-Control-Allow-Origin: *\r\nEtag: W/\"406-ut0vzoCuidvyMf8arZpMpJ6ZRDw\"\r\nVia: 1.1 vegur\r\nCache-Control: max-age\u003d14400\r\nCF-Cache-Status: HIT\r\nAge: 5910\r\nExpect-CT: max-age\u003d604800, report-uri\u003d\"https://report-uri.cloudflare.com/cdn-cgi/beacon/expect-ct\"\r\nReport-To: {\"endpoints\":[{\"url\":\"https:\\/\\/a.nel.cloudflare.com\\/report\\/v3?s\u003dTx6KD4x%2BgS6RwZm8FxSCQvfVAQu4SLPzEjsmNozcyngwhA54Fw%2FXvme0AoG5C3B8NsJr9sn5zj7Mfp4csJXTiwr7vctLFmwfs1qvz73fe3FaySJjeNTD5Z83yg%3D%3D\"}],\"group\":\"cf-nel\",\"max_age\":604800}\r\nNEL: {\"success_fraction\":0,\"report_to\":\"cf-nel\",\"max_age\":604800}\r\nVary: Accept-Encoding\r\nServer: cloudflare\r\nCF-RAY: 72f7e5cdbbcc9522-LIM\r\nContent-Encoding: gzip\r","responseCookies":"\r","responseBody":"{\n    \"page\": 2,\n    \"per_page\": 6,\n    \"total\": 12,\n    \"total_pages\": 2,\n    \"data\": [\n        {\n            \"id\": 7,\n            \"email\": \"michael.lawson@reqres.in\",\n            \"first_name\": \"Michael\",\n            \"last_name\": \"Lawson\",\n            \"avatar\": \"https://reqres.in/img/faces/7-image.jpg\"\n        },\n        {\n            \"id\": 8,\n            \"email\": \"lindsay.ferguson@reqres.in\",\n            \"first_name\": \"Lindsay\",\n            \"last_name\": \"Ferguson\",\n            \"avatar\": \"https://reqres.in/img/faces/8-image.jpg\"\n        },\n        {\n            \"id\": 9,\n            \"email\": \"tobias.funke@reqres.in\",\n            \"first_name\": \"Tobias\",\n            \"last_name\": \"Funke\",\n            \"avatar\": \"https://reqres.in/img/faces/9-image.jpg\"\n        },\n        {\n            \"id\": 10,\n            \"email\": \"byron.fields@reqres.in\",\n            \"first_name\": \"Byron\",\n            \"last_name\": \"Fields\",\n            \"avatar\": \"https://reqres.in/img/faces/10-image.jpg\"\n        },\n        {\n            \"id\": 11,\n            \"email\": \"george.edwards@reqres.in\",\n            \"first_name\": \"George\",\n            \"last_name\": \"Edwards\",\n            \"avatar\": \"https://reqres.in/img/faces/11-image.jpg\"\n        },\n        {\n            \"id\": 12,\n            \"email\": \"rachel.howell@reqres.in\",\n            \"first_name\": \"Rachel\",\n            \"last_name\": \"Howell\",\n            \"avatar\": \"https://reqres.in/img/faces/12-image.jpg\"\n        }\n    ],\n    \"support\": {\n        \"url\": \"https://reqres.in/#support-heading\",\n        \"text\": \"To keep ReqRes free, contributions towards server costs are appreciated!\"\n    }\n}","statusCode":200},"precondition":false,"level":1}]},{"number":5,"description":"Then valida que la respuesta es 200","duration":14,"startTime":"2022-07-23T17:37:00.634849200-05:00[America/Bogota]","result":"SUCCESS","precondition":false,"level":0}],"userStory":{"id":"apis","storyName":"Apis","path":"file:///C:/Users/walther/OneDrive%20-%20Universidad%20Peruana%20de%20Ciencias/Desktop/reqRes/src/test/resources/features/servicio.feature","type":"feature"},"featureTag":{"name":"Features/Apis","type":"feature","displayName":"Features/Apis"},"title":"Operador lista clientes","tags":[{"name":"Apis","type":"feature","displayName":"Apis"},{"name":"getListUser","type":"tag","displayName":"getListUser"},{"name":"Api","type":"tag","displayName":"Api"}],"startTime":"2022-07-23T17:36:57.293630200-05:00[America/Bogota]","duration":3362,"projectKey":"","isManualTestingUpToDate":false,"manual":false,"testSource":"Cucumber","result":"SUCCESS"}